<?xml version="1.0" encoding="UTF-8"?>
<svg width="1440px" height="900px" viewBox="0 0 1440 900" version="1.1" xmlns="http://www.w3.org/2000/svg" xmlns:xlink="http://www.w3.org/1999/xlink">
    <!-- Generator: Sketch 61.1 (89650) - https://sketch.com -->
    <title>Dashboard - login</title>
    <desc>Created with Sketch.</desc>
    <g id="Dashboard---login" stroke="none" stroke-width="1" fill="none" fill-rule="evenodd">
        <rect fill="#2B2B2B" x="0" y="0" width="1440" height="900"></rect>
        <g id="Group-8" transform="translate(248.000000, 312.000000)" fill="#1D1D1D">
            <path d="M299.474,211.121 L390.608,211.121 L390.608,12.361 L299.474,12.361 L299.474,211.121 Z M607.525,100.943 L607.525,58.409 L502.313,58.409 L502.313,231.15 L602.733,231.15 L602.733,308.232 L764.563,308.232 L764.563,100.943 L607.525,100.943 L607.525,100.943 Z M99.286,264.351 L218.847,264.351 L218.847,112.677 L99.286,112.677 L99.286,264.351 Z M20.322,224.451 L111.274,224.451 L111.274,30.181 L20.322,30.181 L20.322,224.451 Z" id="Fill-5"></path>
            <polyline id="Fill-7" points="737.675 93.175 737.675 214.095 691.687 214.095 691.687 80.39 631.895 65.004 631.895 138.858 568.563 138.858 568.563 0.349 475.727 0.349 475.727 105.025 435.829 105.025 435.829 40.651 336.773 40.651 336.773 122.645 275.237 122.645 275.237 17.355 168.09 36.926 168.09 180.237 136.088 180.237 136.088 93.175 46.117 93.175 46.117 135.523 0.892 135.523 0.892 358.562 814.04 358.562 814.04 93.175 737.675 93.175"></polyline>
        </g>
        <g id="Group" transform="translate(326.248000, 324.603000)" fill="#46331E">
            <polygon id="Fill-9" points="177.092 37.943 187.627 37.943 187.627 30.868 177.092 30.868"></polygon>
            <polygon id="Fill-10" points="177.092 51.563 187.627 51.563 187.627 44.488 177.092 44.488"></polygon>
            <polygon id="Fill-11" points="177.092 78.802 187.627 78.802 187.627 71.728 177.092 71.728"></polygon>
            <polygon id="Fill-12" points="158.845 24.323 169.381 24.323 169.381 17.249 158.845 17.249"></polygon>
            <polygon id="Fill-13" points="158.845 37.943 169.381 37.943 169.381 30.868 158.845 30.868"></polygon>
            <polygon id="Fill-14" points="158.845 65.182 169.381 65.182 169.381 58.108 158.845 58.108"></polygon>
            <polygon id="Fill-15" points="593.135 84.109 603.67 84.109 603.67 77.034 593.135 77.034"></polygon>
            <polygon id="Fill-16" points="593.135 110.776 603.67 110.776 603.67 103.702 593.135 103.702"></polygon>
            <polygon id="Fill-17" points="593.135 124.11 603.67 124.11 603.67 117.036 593.135 117.036"></polygon>
            <polygon id="Fill-18" points="593.135 137.444 603.67 137.444 603.67 130.37 593.135 130.37"></polygon>
            <polygon id="Fill-19" points="593.135 164.112 603.67 164.112 603.67 157.037 593.135 157.037"></polygon>
            <polygon id="Fill-20" points="572.301 84.109 582.837 84.109 582.837 77.034 572.301 77.034"></polygon>
            <polygon id="Fill-21" points="572.301 97.443 582.837 97.443 582.837 90.368 572.301 90.368"></polygon>
            <polygon id="Fill-22" points="572.301 137.444 582.837 137.444 582.837 130.37 572.301 130.37"></polygon>
            <polygon id="Fill-23" points="158.845 78.802 169.381 78.802 169.381 71.728 158.845 71.728"></polygon>
            <polygon id="Fill-24" points="158.845 92.422 169.381 92.422 169.381 85.347 158.845 85.347"></polygon>
            <polygon id="Fill-25" points="140.599 37.943 151.134 37.943 151.134 30.868 140.599 30.868"></polygon>
            <polygon id="Fill-26" points="140.599 65.182 151.134 65.182 151.134 58.108 140.599 58.108"></polygon>
            <polygon id="Fill-27" points="140.599 78.802 151.134 78.802 151.134 71.728 140.599 71.728"></polygon>
            <polygon id="Fill-28" points="449.334 9.503 460.326 9.503 460.326 0 449.334 0"></polygon>
            <polygon id="Fill-29" points="449.334 27.796 460.326 27.796 460.326 18.294 449.334 18.294"></polygon>
            <polygon id="Fill-30" points="449.334 46.09 460.326 46.09 460.326 36.588 449.334 36.588"></polygon>
            <polygon id="Fill-31" points="449.334 64.384 460.326 64.384 460.326 54.881 449.334 54.881"></polygon>
            <polygon id="Fill-32" points="449.334 82.677 460.326 82.677 460.326 73.175 449.334 73.175"></polygon>
            <polygon id="Fill-33" points="430.297 9.503 441.289 9.503 441.289 0 430.297 0"></polygon>
            <polygon id="Fill-34" points="430.297 27.796 441.289 27.796 441.289 18.294 430.297 18.294"></polygon>
            <polygon id="Fill-35" points="430.297 82.677 441.289 82.677 441.289 73.175 430.297 73.175"></polygon>
            <polygon id="Fill-36" points="411.259 9.503 422.252 9.503 422.252 0 411.259 0"></polygon>
            <polygon id="Fill-37" points="411.259 46.09 422.252 46.09 422.252 36.588 411.259 36.588"></polygon>
            <polygon id="Fill-38" points="411.259 64.384 422.252 64.384 422.252 54.881 411.259 54.881"></polygon>
            <polygon id="Fill-39" points="411.259 82.677 422.252 82.677 422.252 73.175 411.259 73.175"></polygon>
            <polygon id="Fill-40" points="267.487 133.709 273.832 133.709 273.832 37.826 267.487 37.826"></polygon>
            <polygon id="Fill-41" points="282.444 133.709 288.79 133.709 288.79 37.826 282.444 37.826"></polygon>
            <polygon id="Fill-42" points="3.55271368e-15 94.551 42.078 94.551 42.078 90.291 3.55271368e-15 90.291"></polygon>
            <polygon id="Fill-43" points="3.55271368e-15 104.595 42.078 104.595 42.078 100.335 3.55271368e-15 100.335"></polygon>
            <polygon id="Fill-44" points="3.55271368e-15 131.36 42.078 131.36 42.078 127.1 3.55271368e-15 127.1"></polygon>
            <polygon id="Fill-45" points="3.55271368e-15 120.567 42.078 120.567 42.078 116.307 3.55271368e-15 116.307"></polygon>
            <polygon id="Fill-46" points="3.55271368e-15 141.404 42.078 141.404 42.078 137.144 3.55271368e-15 137.144"></polygon>
            <polygon id="Fill-47" points="297.402 133.709 303.747 133.709 303.747 37.826 297.402 37.826"></polygon>
            <polygon id="Fill-48" points="312.36 133.709 318.705 133.709 318.705 37.826 312.36 37.826"></polygon>
            <polygon id="Fill-49" points="327.318 133.708 333.662 133.708 333.662 37.826 327.318 37.826"></polygon>
            <polygon id="Fill-50" points="342.275 133.709 348.62 133.709 348.62 37.826 342.275 37.826"></polygon>
            <polygon id="Fill-51" points="675.811 185.385 682.154 185.385 682.154 89.503 675.811 89.503"></polygon>
        </g>
        <polygon id="Rectangle" fill="#1D1D1D" points="0 639.686174 907 564 1440 472 1440 1000 0 1000"></polygon>
        <polygon id="Rectangle" fill="#1D1D1D" points="0 607.927429 907 546.575758 1440 472 1440 900 0 900"></polygon>
        <g id="Group-4" transform="translate(-118.000000, 461.000000)">
            <path d="M640.602,316.888 C640.602,321.066 491.816,324.452 308.278,324.452 C124.742,324.452 47.97,321.066 47.97,316.888 C47.97,312.712 124.742,309.326 308.278,309.326 C491.816,309.326 640.602,312.712 640.602,316.888" id="Fill-327" fill="#141414"></path>
            <path d="M146.864,235.342 C170.35,235.342 189.388,254.38 189.388,277.868 C189.388,301.354 170.35,320.392 146.864,320.392 L135.076,320.392 L135.076,235.342 L146.864,235.342" id="Fill-328" fill="#121C21"></path>
            <path d="M368.86,235.342 C392.346,235.342 411.386,254.38 411.386,277.868 C411.386,301.354 392.346,320.392 368.86,320.392 L357.072,320.392 L357.072,235.342 L368.86,235.342" id="Fill-329" fill="#121C21"></path>
            <path d="M146.864,235.342 C170.35,235.342 189.388,254.38 189.388,277.868 C189.388,301.354 170.35,320.392 146.864,320.392 L135.076,320.392 L135.076,235.342 L146.864,235.342" id="Fill-330" fill="#121C21"></path>
            <path d="M184.782,269.93 C184.782,246.446 203.822,227.406 227.306,227.406 C250.792,227.406 269.83,246.446 269.83,269.93 C269.83,293.416 250.792,312.456 227.306,312.456 C203.822,312.456 184.782,293.416 184.782,269.93" id="Fill-331" fill="#121C21"></path>
            <path d="M466.122,227.406 C489.606,227.406 508.646,246.446 508.646,269.93 C508.646,293.416 489.606,312.456 466.122,312.456 L454.33,312.456 L454.33,227.406 L466.122,227.406" id="Fill-332" fill="#121C21"></path>
            <path d="M411.808,269.93 C411.808,246.446 430.846,227.406 454.33,227.406 C477.818,227.406 496.856,246.446 496.856,269.93 C496.856,293.416 477.818,312.456 454.33,312.456 C430.846,312.456 411.808,293.416 411.808,269.93" id="Fill-333" fill="#121C21"></path>
            <polygon id="Fill-334" fill="#E0BA77" points="357.072 75.328 575.17 75.328 575.17 -1.13686838e-13 357.072 -1.13686838e-13"></polygon>
            <polygon id="Fill-335" fill="#E0BA77" points="269.83 249.608 444.312 249.608 444.312 75.126 269.83 75.126"></polygon>
            <polygon id="Fill-339" fill="#C69F67" points="444.312 249.608 575.17 249.608 575.17 75.126 444.312 75.126"></polygon>
            <polygon id="Fill-340" fill="#A07446" points="444.312 175.768 575.17 175.768 575.17 148.966 444.312 148.966"></polygon>
            <polygon id="Fill-341" fill="#8C673F" points="491.01 175.768 527.412 175.768 527.412 148.966 491.01 148.966"></polygon>
            <polyline id="Fill-342" fill="#9C7345" points="444.312 75.328 575.17 75.328 640.602 10.29 509.742 10.29 444.312 75.328"></polyline>
            <polygon id="Fill-343" fill="#A07446" points="495.812 249.608 522.612 249.608 522.612 75.126 495.812 75.126"></polygon>
            <polyline id="Fill-344" fill="#8C673F" points="495.812 75.126 522.612 75.126 587.45 10.29 560.65 10.29 495.812 75.126"></polyline>
            <polyline id="Fill-345" fill="#C69F67" points="444.312 75.126 269.83 75.126 204.402 9.698 378.882 9.698 444.312 75.126"></polyline>
            <polyline id="Fill-346" fill="#A07446" points="370.472 75.126 343.67 75.126 278.24 9.698 305.042 9.698 370.472 75.126"></polyline>
            <path d="M56.362,277.868 L444.312,277.868 L444.312,249.608 L56.362,249.608 C51.726,249.608 47.97,253.364 47.97,257.998 L47.97,269.474 C47.97,274.11 51.726,277.868 56.362,277.868" id="Fill-347" fill="#203949"></path>
            <path d="M56.362,249.608 L269.83,249.608 L269.83,75.126 L162.862,75.126 C141.98,75.126 122.462,85.494 110.772,102.796 L67.136,167.376 C60.114,177.772 56.362,190.028 56.362,202.572 L56.362,249.608" id="Fill-348" fill="#2F55ED"></path>
            <g id="Ресурс-1" transform="translate(316.000000, 122.000000)" fill="#A07446" fill-rule="nonzero">
                <polygon id="Path" points="42 39 54.1465937 13 61 32.1020408"></polygon>
                <polygon id="Path" points="40.7297064 38 27 0 53 11.4904762"></polygon>
                <polygon id="Path" points="43 40.7297064 81 27 69.5095238 53"></polygon>
                <polygon id="Path" points="39 39 13 26.8460134 32.0989791 20"></polygon>
                <polygon id="Path" points="38 40.2702936 0 54 11.4825841 28"></polygon>
                <path d="M39,42 L26.8492401,68 C24.5392097,61.624167 22.2561297,55.2483341 20,48.8725011 L39,42 Z" id="Path"></path>
                <polygon id="Path" points="42 42 68 54.1465937 48.9241012 61"></polygon>
                <polygon id="Path" points="40.2702936 43 54 81 28 69.5095238"></polygon>
            </g>
            <path d="M218.596,178.372 L218.596,94.764 L162.862,94.764 C148.482,94.764 135.09,101.876 127.042,113.79 L83.41,178.372 L218.596,178.372" id="Fill-349" fill="#1F212B"></path>
            <polygon id="Fill-350" fill="#2745BD" points="244.124 249.608 269.83 249.608 269.83 75.126 244.124 75.126"></polygon>
            <path d="M355.106,227.406 C382.976,227.406 405.568,249.998 405.568,277.868 L304.646,277.868 C304.646,249.998 327.238,227.406 355.106,227.406" id="Fill-351" fill="#121C21"></path>
            <path d="M133.11,227.406 C160.978,227.406 183.572,249.998 183.572,277.868 L82.65,277.868 C82.65,249.998 105.242,227.406 133.11,227.406" id="Fill-352" fill="#121C21"></path>
            <path d="M314.546,277.868 C314.546,254.38 333.586,235.342 357.072,235.342 C380.558,235.342 399.596,254.38 399.596,277.868 C399.596,301.354 380.558,320.392 357.072,320.392 C333.586,320.392 314.546,301.354 314.546,277.868" id="Fill-353" fill="#1C2133"></path>
            <path d="M336.148,277.868 C336.148,266.31 345.516,256.944 357.072,256.944 C368.628,256.944 377.994,266.31 377.994,277.868 C377.994,289.424 368.628,298.79 357.072,298.79 C345.516,298.79 336.148,289.424 336.148,277.868" id="Fill-354" fill="#F4F4F1"></path>
            <path d="M92.55,277.868 C92.55,254.38 111.588,235.342 135.076,235.342 C158.56,235.342 177.6,254.38 177.6,277.868 C177.6,301.354 158.56,320.392 135.076,320.392 C111.588,320.392 92.55,301.354 92.55,277.868" id="Fill-355" fill="#1C2133"></path>
            <path d="M114.152,277.868 C114.152,266.31 123.518,256.944 135.076,256.944 C146.63,256.944 155.998,266.31 155.998,277.868 C155.998,289.424 146.63,298.79 135.076,298.79 C123.518,298.79 114.152,289.424 114.152,277.868" id="Fill-356" fill="#F4F4F1"></path>
            <polygon id="Fill-357" fill="#BD3738" points="444.312 236.078 462.536 236.078 462.536 218.732 444.312 218.732"></polygon>
            <polygon id="Fill-358" fill="#DF504E" points="426.086 236.078 444.312 236.078 444.312 218.732 426.086 218.732"></polygon>
            <polygon id="Fill-359" fill="#BD3738" points="556.946 236.078 575.17 236.078 575.17 218.732 556.946 218.732"></polygon>
            <path d="M196.494,194.514 L213.268,194.514 C216.21,194.514 218.596,192.126 218.596,189.184 L218.596,185.37 L191.164,185.37 L191.164,189.184 C191.164,192.126 193.55,194.514 196.494,194.514" id="Fill-360" fill="#2745BD"></path>
            <path d="M196.494,192.25 L213.268,192.25 C216.21,192.25 218.596,189.864 218.596,186.92 L218.596,185.37 L191.164,185.37 L191.164,186.92 C191.164,189.864 193.55,192.25 196.494,192.25" id="Fill-361" fill="#1C2133"></path>
            <path d="M575.17,249.608 L444.312,249.608 C439.676,249.608 435.918,253.364 435.918,257.998 L435.918,269.474 C435.918,274.11 439.676,277.868 444.312,277.868 L575.17,277.868 C579.806,277.868 583.564,274.11 583.564,269.474 L583.564,257.998 C583.564,253.364 579.806,249.608 575.17,249.608" id="Fill-363" fill="#1B2B33"></path>
            <path d="M459.426,263.736 C459.426,260.422 456.74,257.732 453.422,257.732 C450.108,257.732 447.418,260.422 447.418,263.736 C447.418,267.052 450.108,269.74 453.422,269.74 C456.74,269.74 459.426,267.052 459.426,263.736" id="Fill-364" fill="#F4F4F1"></path>
            <path d="M469.768,263.736 C469.768,262.078 468.424,260.734 466.766,260.734 C465.108,260.734 463.764,262.078 463.764,263.736 C463.764,265.394 465.108,266.738 466.766,266.738 C468.424,266.738 469.768,265.394 469.768,263.736" id="Fill-365" fill="#F4F4F1"></path>
            <path d="M560.056,263.736 C560.056,267.052 562.744,269.74 566.06,269.74 C569.374,269.74 572.064,267.052 572.064,263.736 C572.064,260.422 569.374,257.732 566.06,257.732 C562.744,257.732 560.056,260.422 560.056,263.736" id="Fill-366" fill="#F4F4F1"></path>
            <path d="M549.714,263.736 C549.714,265.394 551.058,266.738 552.716,266.738 C554.374,266.738 555.718,265.394 555.718,263.736 C555.718,262.078 554.374,260.734 552.716,260.734 C551.058,260.734 549.714,262.078 549.714,263.736" id="Fill-367" fill="#F4F4F1"></path>
        </g>
        <g id="Group" transform="translate(1281.000000, 604.000000)">
            <polygon id="Fill-435" fill="#2A3670" points="116.297 41.3720344 124.129 41.3720344 124.129 14.5920344 116.297 14.5920344"></polygon>
            <path d="M138.745,175.973034 C138.745,177.873034 126.728,179.412034 111.904,179.412034 C97.08,179.412034 85.064,177.873034 85.064,175.973034 C85.064,174.075034 97.08,172.535034 111.904,172.535034 C126.728,172.535034 138.745,174.075034 138.745,175.973034" id="Fill-479" fill="#141414"></path>
            <path d="M177.809,194.920034 C177.809,196.820034 165.792,198.359034 150.969,198.359034 C136.146,198.359034 124.129,196.820034 124.129,194.920034 C124.129,193.022034 136.146,191.483034 150.969,191.483034 C165.792,191.483034 177.809,193.022034 177.809,194.920034" id="Fill-480" fill="#141414"></path>
            <path d="M68.574,194.920034 C68.574,196.820034 56.557,198.359034 41.734,198.359034 C26.911,198.359034 14.893,196.820034 14.893,194.920034 C14.893,193.022034 26.911,191.483034 41.734,191.483034 C56.557,191.483034 68.574,193.022034 68.574,194.920034" id="Fill-481" fill="#141414"></path>
            <path d="M96.373,4.25103444 C96.373,4.25103444 100.596,-3.08196556 111.446,2.98603444 C117.185,6.19603444 115.824,14.0990344 115.824,14.0990344 C115.824,14.0990344 128.535,14.0070344 132.845,23.6390344 C136.053,30.8050344 133.915,36.1560344 133.915,36.1560344 C133.915,36.1560344 148.02,39.5600344 146.075,55.7070344 C144.129,71.8540344 122.419,73.6990344 115.726,73.9940344 C106.301,74.4100344 92.557,74.0110344 84.792,61.2030344 C80.789,54.5970344 88.961,41.4800344 87.341,38.5260344 C82.013,28.8100344 85.147,21.7590344 90.004,20.5050344 C96.775,18.7580344 96.373,4.25103444 96.373,4.25103444" id="Fill-482" fill="#8F3A27"></path>
            <path d="M77.288,64.4020344 C77.288,64.4020344 85.337,37.2830344 91.366,32.2140344 C98.477,26.2340344 106.664,25.6400344 105.001,34.6030344 L85.619,71.9810344 L66.135,77.6290344 C64.467,76.6670344 63.464,75.6390344 62.508,74.1600344 L77.288,64.4020344" id="Fill-483" fill="#8381B1"></path>
            <path d="M102.164,171.251034 L101.714,174.232034 C101.625,174.821034 101.335,175.358034 100.888,175.752034 C99.477,176.999034 96.187,178.146034 95.156,176.796034 C94.051,175.351034 98.59,173.739034 98.59,173.739034 L99.684,171.251034 L102.164,171.251034" id="Fill-484" fill="#C46D4F"></path>
            <path d="M130.814,157.453034 L133.016,159.512034 C133.452,159.919034 133.729,160.462034 133.801,161.054034 C134.029,162.923034 134.323,166.963034 132.627,167.049034 C130.81,167.141034 130.839,161.808034 130.839,161.808034 L129.409,159.497034 L130.814,157.453034" id="Fill-485" fill="#C46D4F"></path>
            <path d="M87.315,83.6130344 L91.64,123.168034 C91.804,124.667034 92.501,126.055034 93.605,127.083034 L128.976,159.996034 C130.765,159.700034 131.211,159.484034 132.455,158.305034 L107.778,119.655034 L107.885,84.7100344 L87.315,83.6130344" id="Fill-486" fill="#4A4E4F"></path>
            <path d="M116.925,133.982034 C116.925,133.982034 120.996,148.672034 124.281,155.626034 L97.131,130.364034 C97.131,130.364034 100.568,101.174034 101.798,96.1260344 C102.734,92.2860344 103.744,88.4460344 103.929,84.4990344 L107.885,84.7100344 L107.778,119.655034 L116.925,133.982034" id="Fill-487" fill="#333738"></path>
            <path d="M125.015,84.2840344 L102.53,172.052034 C101.487,172.419034 100.396,172.595034 99.125,172.052034 L101.596,86.4200344 L125.015,84.2840344" id="Fill-488" fill="#4A4E4F"></path>
            <path d="M100.922,27.4710344 C105.997,26.7370344 113.131,25.1990344 118.315,31.2070344 C121.724,35.1580344 121.463,43.6110344 122.4,52.4510344 C125.591,82.5480344 125.272,85.6960344 125.272,85.6960344 C125.272,85.6960344 91.646,88.2620344 86.898,83.5140344 C86.328,80.4440344 83.501,55.3360344 88.694,41.0330344 C91.265,33.9510344 96.09,28.1700344 100.922,27.4710344" id="Fill-489" fill="#7773A8"></path>
            <path d="M99.441,21.8490344 L104.637,21.8490344 C104.831,23.4190344 105.148,25.2250344 105.65,27.2510344 C105.879,28.1740344 105.664,29.1550344 105.068,29.8960344 C103.35,32.0280344 99.716,35.6460344 97.845,30.8980344 C97.568,30.1960344 97.572,29.4120344 97.833,28.7040344 C98.319,27.3910344 99.127,24.8510344 99.441,21.8490344" id="Fill-490" fill="#E67B51"></path>
            <path d="M106.29,16.5800344 C106.29,16.5800344 106.505,20.5120344 104.209,23.5480344 C103.351,24.6850344 101.933,26.6320344 99.207,26.5490344 C97.515,26.4990344 96.207,25.0780344 95.289,23.6310344 C92.302,18.9330344 92.563,9.75303444 92.563,9.75303444 C92.563,9.75303444 102.18,5.79603444 105.449,11.2410344 C106.141,12.3940344 106.29,14.5180344 106.29,16.5800344" id="Fill-491" fill="#EA8E68"></path>
            <path d="M100.481,21.5690344 C100.481,22.4830344 99.741,23.2230344 98.827,23.2230344 C97.914,23.2230344 97.172,22.4830344 97.172,21.5690344 L100.481,21.5690344" id="Fill-492" fill="#FBFAF7"></path>
            <path d="M100.983,17.1640344 C100.983,17.6260344 101.176,18.0020344 101.414,18.0020344 C101.652,18.0020344 101.845,17.6260344 101.845,17.1640344 C101.845,16.7000344 101.652,16.3250344 101.414,16.3250344 C101.176,16.3250344 100.983,16.7000344 100.983,17.1640344" id="Fill-493" fill="#453127"></path>
            <path d="M95.274,17.1640344 C95.274,17.6260344 95.467,18.0020344 95.705,18.0020344 C95.943,18.0020344 96.135,17.6260344 96.135,17.1640344 C96.135,16.7000344 95.943,16.3250344 95.705,16.3250344 C95.467,16.3250344 95.274,16.7000344 95.274,17.1640344" id="Fill-494" fill="#453127"></path>
            <path d="M98.843,16.5310344 L98.117,19.4860344 C98.072,19.8250344 98.175,20.3970344 98.979,20.3970344 C99.34,20.3970344 99.61,20.0630344 99.533,19.7100344 L98.843,16.5310344" id="Fill-495" fill="#E15D29"></path>
            <path d="M100.405,15.2870344 C100.845,14.8910344 101.356,14.7440344 101.875,14.6870344 C102.388,14.6540344 102.965,14.7080344 103.422,15.1010344 C102.88,15.3130344 102.435,15.4050344 101.941,15.4540344 C101.452,15.4840344 100.958,15.4860344 100.405,15.2870344" id="Fill-496" fill="#BB6839"></path>
            <path d="M97.285,15.5290344 C96.828,15.7430344 96.448,15.6960344 96.097,15.6600344 C95.922,15.6270344 95.755,15.5970344 95.587,15.5410344 C95.417,15.4990344 95.25,15.4150344 95.014,15.3580344 C95.128,15.1370344 95.352,14.9970344 95.566,14.9400344 C95.785,14.8730344 96.003,14.8760344 96.21,14.8990344 C96.626,14.9700344 96.986,15.1590344 97.285,15.5290344" id="Fill-497" fill="#BB6839"></path>
            <path d="M105.512,9.15103444 C105.512,9.15103444 99.835,15.7290344 93.823,15.4860344 C87.809,15.2430344 86.019,8.82303444 86.428,6.39103444 C86.836,3.95903444 87.88,-3.91996556 98.009,2.40303444 C98.009,2.40303444 112.418,1.01603444 105.512,9.15103444" id="Fill-498" fill="#8F3A27"></path>
            <path d="M105.303,16.9680344 C104.883,18.5700344 105.174,20.0340344 105.954,20.2380344 C106.734,20.4420344 107.705,19.3090344 108.125,17.7090344 C108.545,16.1070344 108.253,14.6430344 107.474,14.4390344 C106.695,14.2340344 105.722,15.3670344 105.303,16.9680344" id="Fill-499" fill="#EA8E68"></path>
            <path d="M189.779,152.434034 L188.756,152.434034 C188.756,163.397034 184.316,173.312034 177.132,180.498034 C169.947,187.682034 160.031,192.122034 149.068,192.123034 C138.105,192.122034 128.189,187.682034 121.003,180.498034 C113.819,173.312034 109.379,163.397034 109.378,152.434034 C109.379,141.471034 113.819,131.555034 121.003,124.369034 C128.189,117.185034 138.105,112.745034 149.068,112.744034 C160.031,112.745034 169.947,117.185034 177.132,124.369034 C184.316,131.555034 188.756,141.471034 188.756,152.434034 L190.801,152.434034 C190.8,129.385034 172.117,110.701034 149.068,110.700034 C126.018,110.701034 107.334,129.385034 107.334,152.434034 C107.334,175.482034 126.018,194.167034 149.068,194.167034 C172.117,194.167034 190.8,175.482034 190.801,152.434034 L189.779,152.434034" id="Fill-500" fill="#263679"></path>
            <path d="M104.57,152.434034 C104.57,140.143034 109.548,129.025034 117.603,120.969034 C125.658,112.915034 136.776,107.936034 149.068,107.936034 C161.359,107.936034 172.476,112.915034 180.532,120.969034 C188.586,129.025034 193.565,140.143034 193.565,152.434034 L195.61,152.434034 C195.609,126.729034 174.772,105.892034 149.068,105.891034 C123.362,105.892034 102.526,126.729034 102.525,152.434034 L104.57,152.434034" id="Fill-501" fill="#263679"></path>
            <path d="M158.015,152.434034 L156.993,152.434034 C156.992,154.625034 156.107,156.600034 154.672,158.037034 C153.234,159.473034 151.259,160.358034 149.068,160.358034 C146.876,160.358034 144.901,159.473034 143.464,158.037034 C142.028,156.600034 141.143,154.625034 141.143,152.434034 C141.143,150.242034 142.028,148.268034 143.464,146.830034 C144.901,145.394034 146.876,144.510034 149.068,144.509034 C151.259,144.510034 153.234,145.394034 154.672,146.830034 C156.107,148.268034 156.992,150.242034 156.993,152.434034 L159.037,152.434034 C159.037,146.928034 154.574,142.465034 149.068,142.465034 C143.561,142.465034 139.099,146.928034 139.098,152.434034 C139.099,157.940034 143.561,162.402034 149.068,162.403034 C154.574,162.402034 159.037,157.940034 159.037,152.434034 L158.015,152.434034" id="Fill-502" fill="#263679"></path>
            <path d="M82.445,152.434034 L81.422,152.434034 C81.422,163.397034 76.982,173.312034 69.798,180.498034 C62.613,187.682034 52.697,192.122034 41.734,192.123034 C30.771,192.122034 20.855,187.682034 13.669,180.498034 C6.485,173.312034 2.045,163.397034 2.044,152.434034 C2.045,141.471034 6.485,131.555034 13.669,124.369034 C20.855,117.185034 30.771,112.745034 41.734,112.744034 C52.697,112.745034 62.613,117.185034 69.798,124.369034 C76.982,131.555034 81.422,141.471034 81.422,152.434034 L83.467,152.434034 C83.466,129.385034 64.783,110.701034 41.734,110.700034 C18.684,110.701034 5.68434189e-14,129.385034 5.68434189e-14,152.434034 C5.68434189e-14,175.482034 18.684,194.167034 41.734,194.167034 C64.783,194.167034 83.466,175.482034 83.467,152.434034 L82.445,152.434034" id="Fill-503" fill="#263679"></path>
            <path d="M8.479,121.356034 C16.789,112.469034 28.607,106.918034 41.734,106.917034 C54.306,106.918034 65.678,112.010034 73.918,120.249034 C82.157,128.489034 87.249,139.862034 87.25,152.434034 L89.294,152.434034 C89.293,126.166034 68.001,104.873034 41.734,104.873034 C28.024,104.872034 15.661,110.677034 6.985,119.960034 L8.479,121.356034" id="Fill-504" fill="#263679"></path>
            <path d="M50.681,152.434034 L49.659,152.434034 C49.658,154.625034 48.773,156.600034 47.338,158.037034 C45.9,159.473034 43.925,160.358034 41.734,160.358034 C39.542,160.358034 37.567,159.473034 36.13,158.037034 C34.694,156.600034 33.809,154.625034 33.809,152.434034 C33.809,150.242034 34.694,148.268034 36.13,146.830034 C37.567,145.394034 39.542,144.510034 41.734,144.509034 C43.925,144.510034 45.9,145.394034 47.338,146.830034 C48.773,148.268034 49.658,150.242034 49.659,152.434034 L51.703,152.434034 C51.703,146.928034 47.24,142.465034 41.734,142.465034 C36.227,142.465034 31.765,146.928034 31.764,152.434034 C31.765,157.940034 36.227,162.402034 41.734,162.403034 C47.24,162.402034 51.703,157.940034 51.703,152.434034 L50.681,152.434034" id="Fill-505" fill="#263679"></path>
            <polyline id="Fill-506" fill="#263679" points="62.969 80.4620344 42.553 143.294034 46.442 144.558034 66.858 81.7260344"></polyline>
            <path d="M131.326,96.5970344 L114.453,148.531034 L62.014,93.1790344 L59.046,95.9920344 L113.85,153.840034 C114.348,154.366034 115.079,154.588034 115.785,154.428034 C116.491,154.269034 117.055,153.754034 117.279,153.066034 L135.215,97.8610344 L131.327,96.5970344" id="Fill-507" fill="#263679"></path>
            <polyline id="Fill-508" fill="#263679" points="147.418 143.404034 131.413 106.107034 127.656 107.720034 143.661 145.017034"></polyline>
            <polyline id="Fill-509" fill="#263679" points="54.77 75.3680344 64.178 83.1390344 82.445 83.1390344 82.445 79.0500344 65.649 79.0500344 57.374 72.2150344 54.77 75.3680344"></polyline>
            <path d="M118.591,96.0670344 L142.127,93.3560344 C144.267,93.1090344 146.201,94.6440344 146.447,96.7830344 C146.694,98.9220344 145.16,100.857034 143.02,101.103034 C142.724,101.137034 142.412,101.134034 142.127,101.103034 L118.591,98.3910344 C117.95,98.3180344 117.49,97.7370344 117.563,97.0950344 C117.626,96.5440344 118.064,96.1270344 118.591,96.0670344" id="Fill-510" fill="#263679"></path>
            <polyline id="Fill-511" fill="#263679" points="105.797 143.148034 96.025 159.203034 99.518 161.329034 109.29 145.273034"></polyline>
            <polygon id="Fill-512" fill="#263679" points="92.31 162.311034 102.658 162.311034 102.658 158.222034 92.31 158.222034"></polygon>
            <path d="M111.148,28.4040344 C113.455,28.0440344 119.277,28.8000344 120.859,37.3350344 C121.478,40.6780344 109.885,64.9820344 109.885,64.9820344 L81.46,79.3910344 C79.991,78.6630344 78.394,75.9560344 78.394,75.9560344 L100.405,58.0850344 C100.405,58.0850344 104.497,29.4400344 111.148,28.4040344" id="Fill-513" fill="#8381B1"></path>
            <path d="M80.859,78.9960344 C80.859,78.9960344 78.401,82.4260344 77.288,82.8150344 C75.12,83.5700344 72.178,83.6870344 70.511,83.2620344 C69.701,83.0560344 70.087,81.5040344 70.82,81.1000344 C73.292,79.7360344 76.734,77.3920344 78.761,76.5340344 C79.422,77.5080344 80.121,78.3330344 80.859,78.9960344" id="Fill-514" fill="#EA8E68"></path>
            <path d="M62.861,74.6790344 L58.249,74.7990344 C57.647,74.7990344 57.08,75.0840344 56.717,75.5650344 L56.423,75.9580344 C55.814,76.7700344 55.998,77.9250344 56.83,78.5070344 L59.627,80.4630344 C60.168,80.8410344 60.889,80.8400344 61.429,80.4590344 L63.772,78.8010344 L65.848,77.4590344 C64.407,76.4690344 63.524,75.4670344 62.861,74.6790344" id="Fill-515" fill="#EA8E68"></path>
        </g>
        <g id="Group-2" transform="translate(751.000000, 481.000000)">
            <path d="M53.681,186.184174 C53.681,188.083174 41.664,189.622174 26.84,189.622174 C12.017,189.622174 0,188.083174 0,186.184174 C0,184.285174 12.017,182.745174 26.84,182.745174 C41.664,182.745174 53.681,184.285174 53.681,186.184174" id="Fill-516" fill="#141414"></path>
            <path d="M30.068,26.7331735 C30.068,26.7331735 39.074,27.2081735 40.668,24.7201735 C45.404,17.3251735 37.636,6.09817352 37.636,6.09817352 L30.725,6.20217352 L30.068,26.7331735" id="Fill-517" fill="#393275"></path>
            <path d="M30.068,29.6181735 C30.068,29.6181735 61.784,50.2171735 66.179,60.7031735 C69.114,67.7101735 55.858,73.8961735 55.858,73.8961735 L52.605,70.3291735 L55.357,66.7111735 C55.357,66.7111735 36.253,66.3131735 33.452,58.4561735 C30.65,50.6001735 30.068,29.6181735 30.068,29.6181735" id="Fill-518" fill="#A45692"></path>
            <path d="M8.921,178.686174 L8.637,181.926174 C8.581,182.567174 8.777,183.203174 9.186,183.700174 C10.517,185.314174 14.271,187.093174 15.539,186.208174 C17.007,185.184174 12.622,181.055174 12.622,181.055174 L11.882,178.686174 L8.921,178.686174" id="Fill-519" fill="#516263"></path>
            <path d="M39.514,179.318174 L39.514,181.715174 C39.514,182.234174 39.682,182.739174 39.997,183.151174 C41.132,184.638174 44.97,186.232174 46.146,185.381174 C47.876,184.130174 41.957,179.318174 41.957,179.318174 L39.514,179.318174" id="Fill-520" fill="#516263"></path>
            <path d="M30.524,93.5371735 L38.869,179.541174 C38.869,179.541174 40.949,180.726174 42.489,179.541174 L49.712,106.256174 C50.26,100.698174 49.709,95.5781735 48.604,87.5321735 L30.524,93.5371735" id="Fill-521" fill="#4B2D49"></path>
            <path d="M40.417,175.357174 C38.583,172.939174 38.288,148.243174 38.249,138.881174 C38.168,119.774174 31.2,85.5391735 31.2,85.5391735 L31.2,99.4541735 L38.869,179.541174 C38.869,179.541174 40.949,180.726174 42.489,179.541174 L42.749,176.907174 C41.861,176.639174 41.051,176.194174 40.417,175.357174" id="Fill-522" fill="#432340"></path>
            <path d="M13.124,85.5391735 L8.627,179.738174 C8.627,179.738174 11.28,181.217174 12.464,179.738174 L37.323,87.5621735 L13.124,85.5391735" id="Fill-523" fill="#4B2D49"></path>
            <path d="M42.105,4.17717352 C41.689,1.68517352 39.558,-2.87982648 30.849,2.53817352 C29.519,3.36517352 27.859,3.49617352 26.425,2.86617352 C25.837,2.60817352 25.147,2.28517352 24.357,1.88317352 C24.138,1.77117352 23.914,1.67217352 23.687,1.58617352 C21.504,0.764173523 19.05,1.81217352 17.939,3.86217352 L14.953,9.37217352 C10.79,17.0531735 16.35,26.3921735 25.086,26.3921735 C27.621,26.3921735 29.721,24.4261735 29.887,21.8971735 L29.999,20.1901735 C30.171,17.5731735 32.456,15.7501735 35.077,15.8471735 C35.706,15.8691735 36.371,15.7591735 37.072,15.4771735 C42.697,13.2071735 42.549,6.84217352 42.105,4.17717352" id="Fill-524" fill="#393275"></path>
            <path d="M24.274,29.4711735 C24.274,29.4711735 17.382,29.1851735 12.359,34.5491735 C7.491,39.7481735 5.355,49.6571735 7.131,66.7641735 C8.627,81.1831735 13.251,89.2921735 13.251,89.2921735 C13.251,89.2921735 27.623,98.7331735 50.024,92.4231735 C52.162,76.7621735 54.768,56.8131735 41.658,36.1111735 C34.908,25.4531735 24.274,29.4711735 24.274,29.4711735" id="Fill-525" fill="#A45692"></path>
            <path d="M26.413,17.7391735 C26.413,17.7391735 27.967,24.6871735 24.007,29.9911735 C24.007,29.9911735 25.396,31.6011735 27.449,32.6001735 C30.601,34.1341735 34.528,34.7151735 33.706,30.7331735 C33.706,30.7331735 31.625,26.5951735 32.338,19.2811735 L26.413,17.7391735" id="Fill-526" fill="#EA8E68"></path>
            <path d="M24.452,14.3921735 C24.452,14.3921735 22.266,19.7491735 26.781,24.5981735 C28.267,26.1921735 30.419,26.8111735 31.59,26.7271735 C34.059,26.5481735 35.622,22.8321735 35.927,21.2861735 C36.404,18.8661735 37.997,11.6161735 37.997,11.6161735 C37.997,11.6161735 32.911,11.2921735 28.948,11.8411735 C26.95,12.1171735 25.236,10.8251735 24.606,13.5391735 C24.544,13.8071735 24.492,14.0911735 24.452,14.3921735" id="Fill-527" fill="#F0A87E"></path>
            <path d="M29.591,14.8151735 C29.196,15.2041735 28.755,15.3611735 28.304,15.4621735 C27.848,15.5391735 27.381,15.5581735 26.868,15.3431735 C27.263,14.9511735 27.704,14.7941735 28.155,14.6951735 C28.611,14.6201735 29.079,14.6011735 29.591,14.8151735" id="Fill-528" fill="#8F3A27"></path>
            <path d="M33.015,15.3191735 C33.48,15.1491735 33.873,15.2031735 34.247,15.3131735 C34.613,15.4441735 34.961,15.6331735 35.235,16.0481735 C34.769,16.2201735 34.377,16.1661735 34.003,16.0551735 C33.637,15.9211735 33.289,15.7321735 33.015,15.3191735" id="Fill-529" fill="#8F3A27"></path>
            <path d="M28.832,17.3251735 C28.832,17.7951735 28.636,18.1761735 28.395,18.1761735 C28.153,18.1761735 27.958,17.7951735 27.958,17.3251735 C27.958,16.8551735 28.153,16.4741735 28.395,16.4741735 C28.636,16.4741735 28.832,16.8551735 28.832,17.3251735" id="Fill-530" fill="#453127"></path>
            <path d="M34.225,17.3251735 C34.225,17.7951735 34.029,18.1761735 33.787,18.1761735 C33.546,18.1761735 33.35,17.7951735 33.35,17.3251735 C33.35,16.8551735 33.546,16.4741735 33.787,16.4741735 C34.029,16.4741735 34.225,16.8551735 34.225,17.3251735" id="Fill-531" fill="#453127"></path>
            <path d="M25.149,16.0811735 C25.522,17.5061735 25.184,18.8301735 24.394,19.0371735 C23.603,19.2441735 22.659,18.2571735 22.285,16.8321735 C21.911,15.4061735 22.249,14.0831735 23.04,13.8761735 C23.832,13.6691735 24.775,14.6561735 25.149,16.0811735" id="Fill-532" fill="#F0A87E"></path>
            <path d="M31.438,16.8171735 L32.232,19.9701735 C32.278,20.3151735 32.062,20.9081735 31.3,20.7401735 C30.933,20.7401735 30.66,20.4011735 30.738,20.0431735 L31.438,16.8171735" id="Fill-533" fill="#E15D29"></path>
            <path d="M26.857,8.02617352 C26.857,8.02617352 31.235,18.9071735 37.521,15.2801735 C43.808,11.6531735 41.143,6.25017352 34.999,6.02817352 C28.855,5.80617352 26.783,4.32517352 26.857,8.02617352" id="Fill-534" fill="#393275"></path>
            <path d="M50.448,72.5321735 L47.479,72.5321735 C44.769,72.5321735 42.571,70.3351735 42.571,67.6231735 L42.571,61.4031735 L55.357,61.4031735 L55.357,67.6231735 C55.357,70.3351735 53.16,72.5321735 50.448,72.5321735" id="Fill-535" fill="#4B4589"></path>
            <path d="M55.302,31.9601735 C53.761,30.3551735 52.777,28.3081735 52.252,26.1441735 C51.07,21.2801735 48.302,17.8661735 45.073,17.8661735 C40.771,17.8661735 37.284,23.9291735 37.284,31.4061735 C37.284,38.8841735 45.689,54.1661735 47.326,54.2631735 C48.772,54.3481735 57.369,41.7321735 57.369,37.7661735 C57.369,35.3801735 56.555,33.2661735 55.302,31.9601735" id="Fill-536" fill="#5BB998"></path>
            <path d="M47.65,27.2221735 C48.999,32.8181735 49.317,38.6461735 49.015,44.4081735 C48.864,47.2941735 48.561,50.1711735 48.135,53.0331735 C47.7,55.8951735 47.182,58.7111735 46.71,61.5521735 L45.176,61.2551735 C45.774,58.4481735 46.424,55.6341735 46.98,52.8331735 C47.528,50.0291735 47.958,47.1981735 48.235,44.3511735 C48.793,38.6621735 48.743,32.8731735 47.65,27.2221735" id="Fill-537" fill="#258C7A"></path>
            <path d="M63.485,44.7271735 C65.569,39.0311735 65.492,33.7681735 63.313,32.9711735 C61.377,32.2621735 58.433,35.3211735 56.339,40.0091735 C55.972,40.8321735 55.329,41.5201735 54.504,41.8791735 C52.886,42.5831735 51.623,44.7741735 51.47,47.4391735 C51.279,50.7661735 54.082,54.8061735 54.082,54.8061735 C54.082,54.8061735 61.426,50.3571735 63.485,44.7271735" id="Fill-538" fill="#A2C2C0"></path>
            <path d="M61.743,36.0651735 C59.82,40.1381735 58.044,44.2801735 56.5,48.5051735 C54.978,52.7291735 53.612,57.0441735 52.992,61.4611735 L52.219,61.3461735 C52.985,56.8491735 54.487,52.5621735 56.135,48.3661735 C57.806,44.1741735 59.703,40.0811735 61.743,36.0651735" id="Fill-539" fill="#258C7A"></path>
            <path d="M63.485,44.7271735 C65.569,39.0311735 65.492,33.7681735 63.313,32.9711735 C61.377,32.2621735 58.433,35.3211735 56.339,40.0091735 C55.972,40.8321735 55.329,41.5201735 54.504,41.8791735 C52.886,42.5831735 51.623,44.7741735 51.47,47.4391735 C51.279,50.7661735 54.082,54.8061735 54.082,54.8061735 C54.082,54.8061735 61.426,50.3571735 63.485,44.7271735" id="Fill-540" fill="#38A58B"></path>
            <path d="M55.235,63.1581735 L42.693,63.1581735 C42.246,63.1581735 41.883,62.7961735 41.883,62.3481735 L41.883,60.4161735 C41.883,59.9691735 42.246,59.6061735 42.693,59.6061735 L55.235,59.6061735 C55.683,59.6061735 56.045,59.9691735 56.045,60.4161735 L56.045,62.3481735 C56.045,62.7961735 55.683,63.1581735 55.235,63.1581735" id="Fill-541" fill="#7773A8"></path>
            <path d="M44.757,44.8761735 C45.811,47.1881735 46.704,49.5761735 47.414,52.0271735 C48.104,54.4801735 48.635,57.0131735 48.552,59.6341735 L47.772,59.5771735 C47.979,57.1121735 47.597,54.5831735 47.036,52.1251735 C46.458,49.6631735 45.691,47.2371735 44.757,44.8761735" id="Fill-542" fill="#258C7A"></path>
            <polyline id="Fill-543" fill="#393275" points="24.007 13.3981735 24.941 16.4341735 25.225 16.4341735 26.855 11.5211735 24.326 11.5211735 24.007 13.3981735"></polyline>
            <path d="M29.752,21.8021735 C29.752,22.7561735 30.527,23.5301735 31.481,23.5301735 C32.436,23.5301735 33.21,22.7561735 33.21,21.8021735 L29.752,21.8021735" id="Fill-544" fill="#FFFFFE"></path>
            <polyline id="Fill-545" fill="#1A4D79" points="58.229 72.0251735 41.345 72.5321735 38.142 44.8761735 63.784 44.8761735 58.229 72.0251735"></polyline>
            <path d="M41.848,68.4051735 C41.452,67.8491735 40.581,68.0361735 40.446,68.7051735 L39.891,71.4801735 C39.891,72.9841735 41.11,74.2041735 42.615,74.2041735 L45.927,74.2041735 L45.927,71.8701735 L43.205,70.3781735 C43.205,70.3781735 42.643,69.5211735 41.848,68.4051735" id="Fill-546" fill="#EA8E68"></path>
            <path d="M45.25,71.0401735 C44.867,72.9651735 44.904,74.4451735 46.1,75.8761735 L47.376,75.7791735 C50.008,75.5801735 55.906,74.2811735 58.229,73.0311735 C61.743,71.1411735 64.999,66.9821735 64.999,66.9821735 L63.784,60.5941735 L45.25,71.0401735" id="Fill-547" fill="#A45692"></path>
            <path d="M51.294,36.9971735 L51.294,35.9971735 C47.786,35.9981735 44.943,38.8411735 44.942,42.3491735 L44.942,47.8891735 L57.646,47.8891735 L57.646,42.3491735 C57.646,38.8411735 54.803,35.9981735 51.294,35.9971735 L51.294,37.9971735 C52.499,37.9981735 53.581,38.4831735 54.372,39.2721735 C55.161,40.0631735 55.646,41.1441735 55.646,42.3491735 L55.646,45.8891735 L46.942,45.8891735 L46.942,42.3491735 C46.943,41.1441735 47.428,40.0631735 48.217,39.2721735 C49.008,38.4831735 50.089,37.9981735 51.294,37.9971735 L51.294,36.9971735" id="Fill-548" fill="#1A4D79"></path>
            <path d="M11.767,48.1721735 C11.767,48.1721735 20.951,70.1371735 27.896,72.0351735 C36.448,74.3731735 59.939,56.8441735 59.939,56.8441735 C59.572,54.1591735 58.574,52.3271735 57.174,51.0361735 C57.174,51.0361735 35.569,61.4031735 32.238,58.7041735 C29.948,56.8491735 27.611,41.4781735 27.611,41.4781735 C26.06,35.6411735 19.174,33.1291735 14.23,36.5971735 C10.5,39.2121735 9.689,43.0991735 11.767,48.1721735" id="Fill-549" fill="#994A8D"></path>
            <path d="M58.061,51.8341735 C58.061,51.8341735 61.983,47.0681735 62.315,47.1251735 C63.417,47.3141735 61.743,49.6361735 61.743,49.6361735 L62.582,49.6551735 C63.239,49.6701735 63.752,50.2281735 63.714,50.8831735 L63.503,54.5001735 C63.443,55.5101735 62.522,56.2451735 61.525,56.0791735 L59.751,55.7841735 L58.061,51.8341735" id="Fill-550" fill="#EA8E68"></path>
        </g>
        <g id="Group-3" transform="translate(628.000000, 654.000000)">
            <path d="M48.015,184.706 C48.015,186.292 37.267,187.579 24.008,187.579 C10.748,187.579 -6.75015599e-14,186.292 -6.75015599e-14,184.706 C-6.75015599e-14,183.118 10.748,181.832 24.008,181.832 C37.267,181.832 48.015,183.118 48.015,184.706" id="Fill-551" fill="#141414"></path>
            <path d="M32.965,178.925 L33.428,180.904 C33.609,181.68 41.751,183.139 41.7210827,184.632 C41.706,185.355 33.242,185.529 31.582,184.923 C30.75,184.621 30.265,183.752 30.4,182.877 L31.098,178.372 L32.965,178.925" id="Fill-552" fill="#44323E"></path>
            <path d="M50.302,143.62 C50.302,143.62 53.95,135.032 54.536,131.145 L54.543,131.097 C56.898,119.132 55.987,90.3510002 55.987,90.3510002 C52.483,81.9140002 18.098,87.8000002 18.098,87.8000002 C18.098,87.8000002 17.479,116.668 22.458,140.202 C27.437,163.735 30.387,179.593 30.387,179.593 C31.089,179.995 32.514,179.93 33.485,179.593 C33.485,179.593 34.519,126.224 36.008,110.7 C35.976,120.659 36.342,116.16 37.518,136.755 L50.302,143.62" id="Fill-553" fill="#D25E4D"></path>
            <path d="M34.517,146.232 C34.362,151.207 34.011,156.182 33.926,160.577 C31.847,161.892 29.538,163.122 27.433,164.397 C26.851,161.482 26.189,158.197 25.455,154.605 C28.497,152.028 31.826,149.201 34.517,146.232" id="Fill-554" fill="#B84230"></path>
            <path d="M33.696,161.724 C33.506,172.076 33.485,179.593 33.485,179.593 C32.514,179.93 31.089,179.995 30.388,179.593 C30.388,179.593 29.413,174.355 27.64,165.44 C29.666,164.213 31.691,162.984 33.696,161.724" id="Fill-555" fill="#D25E4D"></path>
            <path d="M27.388,24.7730002 C24.415,25.4870002 18.77,31.3370002 18.009,37.5260002 C15.155,60.7100002 17.768,93.3420002 17.768,93.3420002 C17.768,93.3420002 35.956,104.982 56.534,92.7190002 C56.534,92.7190002 55.469,63.7200002 55.076,54.4650002 C53.719,22.4830002 32.141,23.6320002 27.388,24.7730002" id="Fill-556" fill="#FEF5A7"></path>
            <path d="M38.258,13.5430002 L41.383,27.1220002 C41.383,28.3090002 34.233,23.8350002 30.159,25.0420002 C30.159,25.0420002 32.359,20.5200002 33.777,12.0410002 L38.258,13.5430002" id="Fill-557" fill="#F0A87E"></path>
            <path d="M39.559,19.1970002 C38.477,18.4220002 36.761,19.0100002 36.761,19.7430002 C37.216,22.8470002 38.905,25.0730002 41.05,25.6740002 L39.559,19.1970002" id="Fill-558" fill="#EA8E68"></path>
            <path d="M45.436,8.64900017 C45.436,8.64900017 46.335,22.4410002 44.793,23.2750002 C43.056,24.2140002 37.273,24.3290002 36.362,18.3750002 C35.294,11.4030002 32.48,7.34300017 35.107,7.21700017 C37.734,7.09000017 45.282,5.39700017 45.436,8.64900017" id="Fill-559" fill="#F0A87E"></path>
            <path d="M51.182,5.97300017 C50.881,9.18400017 47.666,13.4380002 41.806,9.92700017 C34.99,5.84400017 30.946,20.6040002 28.405,17.1980002 C25.32,13.0630002 25.718,3.68200017 32.313,1.23200017 C35.29,0.126000174 38.186,2.30000017 39.799,2.27000017 C44.099,2.18700017 45.152,-1.70530257e-13 46.653,-1.70530257e-13 C50.822,-0.000999826056 51.338,4.31000017 51.182,5.97300017" id="Fill-560" fill="#663829"></path>
            <path d="M43.103,14.1870002 C43.012,14.6650002 43.126,15.0880002 43.359,15.1330002 C43.592,15.1780002 43.855,14.8270002 43.947,14.3490002 C44.039,13.8720002 43.925,13.4480002 43.692,13.4030002 C43.458,13.3580002 43.195,13.7080002 43.103,14.1870002" id="Fill-561" fill="#663829"></path>
            <path d="M44.864,12.1350002 C44.416,12.1960002 44.097,12.1640002 43.779,12.1360002 L42.741,11.9990002 C42.937,11.5750002 43.436,11.4160002 43.849,11.4590002 C44.266,11.5160002 44.664,11.7190002 44.864,12.1350002" id="Fill-562" fill="#663829"></path>
            <path d="M41.431,6.66400017 C41.431,6.66400017 36.6,9.47500017 37.359,13.3910002 C37.768,15.4990002 37.061,21.4110002 31.888,19.7770002 C23.807,17.2250002 29.798,6.92300017 29.798,6.92300017 C29.798,6.92300017 36.918,2.89700017 41.431,6.12100017" id="Fill-563" fill="#663829"></path>
            <path d="M35.77,13.6800002 C35.77,15.2110002 37.037,16.5210002 37.811,16.5730002 C38.586,16.6240002 38.806,15.2540002 38.91,13.6820002 C39.015,12.1090002 38.471,10.7920002 37.697,10.7420002 C36.922,10.6900002 35.77,11.4810002 35.77,13.6800002" id="Fill-564" fill="#F0A87E"></path>
            <path d="M45.591,13.9320002 L46.738,17.4160002 C46.85,17.8950002 46.536,18.3910002 46.047,18.4450002 C45.892,18.4620002 45.739,18.4660002 45.59,18.4540002 C45.242,18.4250002 44.983,18.1190002 45.023,17.7710002 L45.591,13.9320002" id="Fill-565" fill="#E15D29"></path>
            <path d="M13.164,172.146 L11.553,175.063 C10.942,175.576 13.174,184.488 11.429,185.327 C10.778,185.639 7.342,176.985 7.132,175.231 C7.038,174.44 7.478,173.693 8.181,173.351 C8.338,173.275 8.497,173.203 8.64,173.102 L11.779,170.906 L13.164,172.146" id="Fill-566" fill="#44323E"></path>
            <path d="M9.91,171.337 C9.91,171.337 33.848,139.188 37.518,136.755 C41.189,134.323 43.164,137.216 43.164,137.216 L50.302,143.62 L12.667,173.642 C11.592,173.443 10.645,172.775 9.91,171.337" id="Fill-567" fill="#D25E4D"></path>
            <path d="M21.605,155.909 L21.605,166.512 L12.667,173.642 C11.592,173.443 10.645,172.775 9.91,171.337 C9.91,171.337 15.449,163.899 21.605,155.909" id="Fill-568" fill="#D25E4D"></path>
            <polyline id="Fill-569" fill="#1A4D79" points="46.01 144.776 77.133 145.703 78.31 106.187 47.186 105.26 46.01 144.776"></polyline>
            <path d="M56.786,107.12 L56.758,108.056 L69.525,108.436 L69.786,99.6660002 L69.787,99.5850002 C69.787,98.1360002 68.637,96.9430002 67.179,96.9000002 L58.849,96.6520002 L58.768,96.6500002 C57.32,96.6510002 56.127,97.8000002 56.082,99.2580002 L55.821,108.028 L56.758,108.056 L56.786,107.12 L57.722,107.147 L57.955,99.3130002 C57.967,98.8740002 58.331,98.5240002 58.768,98.5250002 L58.793,98.5250002 L67.124,98.7730002 C67.565,98.7850002 67.914,99.1480002 67.913,99.5850002 L67.913,99.6110002 L67.708,106.507 L56.813,106.183 L56.786,107.12 L57.722,107.147 L56.786,107.12" id="Fill-570" fill="#1A4D79"></path>
            <path d="M66.702,96.3190002 C66.929,96.5890002 66.688,96.9940002 66.341,96.9250002 C65.218,96.7070002 64.188,96.0520002 64.065,96.5900002 C63.935,97.1580002 65.507,97.8760002 66.671,98.9130002 C66.964,99.1740002 66.769,99.6590002 66.376,99.6430002 C64.974,99.5870002 62.703,99.4890002 61.667,99.3980002 C60.111,99.2620002 57.731,94.1110002 57.731,94.1110002 L60.009,92.6210002 C60.009,92.6210002 64.613,94.7270002 65.153,94.8460002 C65.468,94.9160002 66.17,95.6860002 66.702,96.3190002" id="Fill-571" fill="#F0A87E"></path>
            <path d="M48.832,39.2920002 C48.495,46.0450002 47.905,57.0670002 47.234,66.1080002 L61.038,93.2490002 C60.385,94.4750002 59.563,95.5260002 58.449,96.2720002 C58.449,96.2720002 34.057,71.8620002 32.748,66.8200002 C31.44,61.7770002 26.343,35.2830002 38.354,31.3000002 L38.56,31.2350002 C43.822,29.5720002 49.107,33.7800002 48.832,39.2920002" id="Fill-572" fill="#4E8C67"></path>
            <polyline id="Fill-573" fill="#D25E4D" points="37.518 136.755 26.239 105.424 40.199 105.875 37.518 136.755"></polyline>
            <polyline id="Fill-574" fill="#B84230" points="35.064 129.762 25.915 109.069 34.694 139.672 35.064 129.762"></polyline>
        </g>
        <g id="Group-2" transform="translate(739.000000, -13.000000)">
            <path d="M1.42364204,164.857437 L106.201642,164.857437 C105.934642,164.028437 105.609642,163.219437 105.197642,162.443437 C103.487642,159.209437 99.979642,156.629437 96.361642,157.177437 C92.865642,157.707437 89.530642,160.954437 86.297642,159.521437 C83.359642,158.219437 83.087642,154.060437 80.778642,151.823437 C78.025642,149.156437 73.516642,150.070437 69.892642,151.322437 C66.268642,152.574437 62.018642,153.924437 58.836642,151.786437 C55.140642,149.303437 55.365642,143.894437 53.600642,139.807437 C51.418642,134.756437 45.604642,131.674437 40.141642,132.325437 C34.677642,132.977437 29.883642,137.096437 28.034642,142.278437 C26.520642,146.524437 25.873642,152.370437 21.459642,153.283437 C18.452642,153.904437 15.721642,151.575437 12.798642,150.633437 C8.60664204,149.282437 3.60164204,151.159437 1.33064204,154.935437 C-0.45835796,157.912437 -0.40135796,161.833437 1.24864204,164.865437 C1.30764204,164.862437 1.36364204,164.857437 1.42364204,164.857437" id="Fill-4" fill="#FFFFFE"></path>
            <path d="M87.865642,1.32043729 C63.644642,-4.46456271 39.336642,9.27843729 31.453642,32.3804373 C30.867642,34.0964373 31.523642,35.9894373 33.026642,37.0044373 C40.413642,41.9954373 65.484642,55.6784373 120.128642,57.3294373 C122.174642,57.3914373 123.981642,55.9184373 124.239642,53.8874373 C127.290642,29.9444373 111.875642,7.05443729 87.865642,1.32043729" id="Fill-33" fill="#4CB9DE"></path>
            <polyline id="Fill-34" fill="#4CB9DE" points="51.811642 69.5514373 32.828642 35.1124373 33.709642 34.6274373 49.586642 63.4324373 39.472642 35.5294373 40.416642 35.1874373 52.724642 69.1374373 51.811642 69.5514373"></polyline>
            <polyline id="Fill-35" fill="#4CB9DE" points="89.138642 78.4664373 88.511642 77.6844373 114.832642 52.9594373 115.520642 53.6924373 93.889642 74.0134373 121.067642 55.4904373 121.634642 56.3214373 89.138642 78.4664373"></polyline>
            <polyline id="Fill-36" fill="#F7C78B" points="42.040642 68.5224373 68.401642 85.4164373 59.591642 122.856437 34.457642 102.160437 42.040642 68.5224373"></polyline>
            <polyline id="Fill-37" fill="#E8B372" points="68.401642 85.4164373 59.591642 122.856437 90.479642 114.795437 97.937642 81.1454373 68.401642 85.4164373"></polyline>
            <polyline id="Fill-38" fill="#DEA767" points="42.040642 68.5224373 68.401642 85.4164373 97.937642 81.1454373 72.224642 64.0574373 42.040642 68.5224373"></polyline>
            <polyline id="Fill-39" fill="#FFFFFE" points="54.884642 86.0464373 48.426642 80.6274373 50.080642 73.7004373 56.801642 78.0194373 54.884642 86.0464373"></polyline>
            <polyline id="Fill-40" fill="#FFFFFE" points="78.721642 91.7384373 86.931642 89.8234373 88.658642 82.5914373 80.652642 83.6504373 78.721642 91.7384373"></polyline>
            <polyline id="Fill-41" fill="#FFFFFE" points="78.463642 68.2034373 50.080642 73.7004373 56.669642 78.0304373 84.878642 72.4494373 78.463642 68.2034373"></polyline>
            <polyline id="Fill-42" fill="#FFFFFE" points="57.697642 66.1514373 80.652642 83.6504373 88.658642 82.5914373 65.336642 65.0044373 57.697642 66.1514373"></polyline>
            <path d="M86.084642,2.90443729 C83.448642,3.03543729 80.834642,3.38143729 78.260642,3.90743729 C75.680642,4.40143729 73.133642,5.05543729 70.648642,5.88543729 C65.668642,7.51243729 60.896642,9.76243729 56.557642,12.6724373 C54.361642,14.0894373 52.309642,15.7164373 50.353642,17.4454373 C48.380642,19.1664373 46.642642,21.1254373 44.910642,23.0864373 C44.109642,24.1204373 43.238642,25.1044373 42.507642,26.1934373 L41.366642,27.7974373 L40.315642,29.4614373 C39.571642,30.5474373 38.968642,31.7164373 38.303642,32.8534373 C37.667642,34.0054373 37.108642,35.1994373 36.489642,36.3674373 C37.463642,33.9154373 38.565642,31.5034373 39.866642,29.1944373 L40.862642,27.4734373 L41.954642,25.8094373 C42.655642,24.6804373 43.498642,23.6514373 44.275642,22.5714373 C47.573642,18.3994373 51.549642,14.7604373 55.969642,11.7864373 C60.441642,8.89543729 65.301642,6.59043729 70.405642,5.10743729 C75.500642,3.62943729 80.798642,2.75743729 86.084642,2.90443729" id="Fill-43" fill="#101A2D"></path>
            <path d="M90.066642,4.26643729 C94.422642,6.88343729 98.359642,10.1824373 101.897642,13.8584373 C105.435642,17.5384373 108.447642,21.7474373 110.748642,26.3354373 C111.882642,28.6384373 112.755642,31.0704373 113.403642,33.5544373 C114.054642,36.0364373 114.476642,38.5934373 114.492642,41.1634373 C114.690642,46.3054373 113.484642,51.4074373 111.483642,56.0564373 C112.230642,53.6314373 112.990642,51.2124373 113.298642,48.7034373 C113.548642,47.4684373 113.585642,46.2054373 113.717642,44.9584373 C113.717642,43.7014373 113.799642,42.4474373 113.675642,41.1974373 C113.630642,39.9444373 113.426642,38.7074373 113.279642,37.4654373 C113.036642,36.2384373 112.829642,35.0034373 112.468642,33.8034373 C111.806642,31.3924373 110.924642,29.0364373 109.792642,26.8014373 C107.622642,22.2804373 104.660642,18.1584373 101.299642,14.4114373 C99.623642,12.5294373 97.835642,10.7424373 95.952642,9.05743729 C94.087642,7.35143729 92.126642,5.74743729 90.066642,4.26643729" id="Fill-44" fill="#101A2D"></path>
            <path d="M87.183642,5.41543729 C85.302642,6.61143729 83.447642,7.83643729 81.663642,9.16443729 C79.853642,10.4494373 78.089642,11.7994373 76.368642,13.1984373 C72.926642,15.9944373 69.615642,18.9484373 66.567642,22.1554373 C63.447642,25.2994373 60.713642,28.7914373 58.184642,32.4154373 L56.390642,35.2074373 C55.778642,36.1334373 55.332642,37.1494373 54.789642,38.1154373 C53.626642,40.0174373 52.931642,42.1334373 51.969642,44.1514373 C53.273642,39.8914373 55.099642,35.7624373 57.497642,31.9684373 C59.919642,28.1994373 62.704642,24.6584373 65.799642,21.4184373 C68.950642,18.2354373 72.288642,15.2354373 75.867642,12.5554373 C79.451642,9.88643729 83.196642,7.42043729 87.183642,5.41543729" id="Fill-45" fill="#101A2D"></path>
            <path d="M88.664642,6.54443729 C91.332642,9.80943729 93.385642,13.5614373 94.997642,17.4724373 C96.620642,21.3864373 97.708642,25.5264373 98.284642,29.7314373 C98.789642,33.9374373 98.938642,38.2214373 98.320642,42.4194373 C98.128642,44.5334373 97.593642,46.5884373 97.134642,48.6484373 C96.931642,49.6864373 96.522642,50.6694373 96.197642,51.6714373 C95.860642,52.6714373 95.512642,53.6644373 95.155642,54.6524373 C96.210642,50.5774373 97.229642,46.5064373 97.506642,42.3314373 L97.635642,40.7734373 C97.690642,40.2554373 97.739642,39.7374373 97.726642,39.2144373 L97.755642,36.0904373 C97.784642,35.0484373 97.629642,34.0124373 97.574642,32.9744373 L97.458642,31.4184373 C97.401642,30.9014373 97.304642,30.3894373 97.231642,29.8744373 C97.068642,28.8474373 96.985642,27.8054373 96.758642,26.7894373 L96.101642,23.7354373 L95.238642,20.7314373 C94.930642,19.7364373 94.561642,18.7604373 94.237642,17.7674373 C93.899642,16.7804373 93.471642,15.8274373 93.091642,14.8534373 C92.673642,13.8974373 92.226642,12.9514373 91.773642,12.0084373 C90.858642,10.1254373 89.826642,8.29743729 88.664642,6.54443729" id="Fill-46" fill="#101A2D"></path>
            <path d="M80.332642,83.5894373 C81.647642,82.9734373 83.008642,82.6814373 84.380642,82.4644373 C85.757642,82.2794373 87.145642,82.1734373 88.580642,82.3914373 C87.267642,83.0084373 85.905642,83.3014373 84.532642,83.5164373 C83.155642,83.6984373 81.767642,83.8044373 80.332642,83.5894373" id="Fill-47" fill="#101A2D"></path>
            <path d="M50.264642,73.3444373 C51.626642,73.8524373 52.792642,74.6204373 53.911642,75.4484373 C55.011642,76.3034373 56.063642,77.2214373 56.915642,78.4004373 C55.552642,77.8934373 54.386642,77.1264373 53.268642,76.2954373 C52.170642,75.4384373 51.118642,74.5214373 50.264642,73.3444373" id="Fill-48" fill="#101A2D"></path>
        </g>
        <g id="Group-2-Copy" transform="translate(437.000000, 140.000000) scale(-1, 1) translate(-437.000000, -140.000000) translate(299.000000, 50.000000)">
            <path d="M1.42093901,179.991908 L106,179.991908 C105.733507,179.153414 105.409124,178.33515 104.997906,177.550263 C103.291153,174.279226 99.7898135,171.669679 96.1786829,172.223955 C92.6893207,172.760024 89.3606528,176.04421 86.1337912,174.594799 C83.2013695,173.277888 82.9298859,169.071258 80.6252699,166.808639 C77.877497,164.111096 73.3770581,165.035563 69.7599389,166.301902 C66.1428197,167.56824 61.900889,168.9337 58.7249306,166.771215 C55.0359481,164.259779 55.2605209,158.788834 53.498872,154.655028 C51.3210149,149.546183 45.5180538,146.428887 40.0654262,147.087342 C34.6118006,147.746809 29.8269028,151.912981 27.9814135,157.154327 C26.4702881,161.448953 25.8245165,167.361904 21.4188972,168.28536 C18.4176065,168.913471 15.6917918,166.557799 12.7743416,165.605011 C8.59030085,164.238539 3.5948037,166.137035 1.32811559,169.956279 C-0.457487689,172.967372 -0.400595914,176.933277 1.24627128,180 C1.30515926,179.996966 1.36105293,179.991908 1.42093901,179.991908" id="Fill-4" fill="#FFFFFE"></path>
            <path d="M239.39281,1.31280635 C215.271071,-4.43876154 191.062689,9.22481625 183.211994,32.1933074 C182.628396,33.8993905 183.281707,35.7814506 184.778548,36.7905849 C192.135275,41.7527414 217.10353,55.3566659 271.523592,56.9981246 C273.561207,57.0597663 275.360802,55.5952789 275.617744,53.5760163 C278.656241,29.7713853 263.304414,7.01366898 239.39281,1.31280635" id="Fill-33" fill="#4CB9DE"></path>
            <polyline id="Fill-34" fill="#4CB9DE" points="204.082228 70 185 35.4860554 185.885605 35 201.845597 63.8676841 191.678729 35.9039629 192.627664 35.5612186 205 69.5850991 204.082228 70"></polyline>
            <polyline id="Fill-35" fill="#4CB9DE" points="241.624672 79 241 78.2028855 267.223259 53 267.908704 53.7471674 246.358029 74.4609323 273.435106 55.5799192 274 56.4269808 241.624672 79"></polyline>
            <polyline id="Fill-36" fill="#F7C78B" points="193.59551 69 220 85.7901498 211.175465 123 186 102.431222 193.59551 69"></polyline>
            <polyline id="Fill-37" fill="#E8B372" points="220.730506 85.3005922 212 123 242.609294 114.883148 250 81 220.730506 85.3005922"></polyline>
            <polyline id="Fill-38" fill="#DEA767" points="194 68.3899527 220.409575 85 250 80.8007866 224.239619 64 194 68.3899527"></polyline>
            <polyline id="Fill-39" fill="#FFFFFE" points="207.168836 86 201 80.7328689 202.57994 74 209 78.1979589 207.168836 86"></polyline>
            <polyline id="Fill-40" fill="#FFFFFE" points="231 92 239.262051 90.1157757 241 83 232.943242 84.041981 231 92"></polyline>
            <polyline id="Fill-41" fill="#FFFFFE" points="230.547761 68 202 73.5937723 208.627249 78 237 72.320749 230.547761 68"></polyline>
            <polyline id="Fill-42" fill="#FFFFFE" points="210 66.1687761 232.983915 84 241 82.9208946 217.648622 65 210 66.1687761"></polyline>
            <path d="M238,3.0158332 C235.342474,3.14495868 232.707128,3.48600765 230.112108,4.00448094 C227.511039,4.49141213 224.94324,5.13605382 222.437947,5.95417708 C217.41728,7.55789579 212.606311,9.77569979 208.231878,12.6440596 C206.017945,14.0407833 203.949188,15.644502 201.977215,17.3487612 C199.988104,19.0451348 198.235911,20.9761028 196.489767,22.9090422 C195.682226,23.9282464 194.804113,24.898166 194.067144,25.9715832 L192.916826,27.552631 L191.857244,29.1928203 C191.107168,30.2632803 190.499244,31.4155527 189.828813,32.536283 C189.18762,33.6717986 188.624055,34.8487133 188,36 C188.981954,33.5830865 190.092953,31.2056006 191.404577,28.9296408 L192.408711,27.2332672 L193.509628,25.5930779 C194.216352,24.4802332 195.066237,23.4659575 195.849582,22.4014116 C199.174514,18.2891101 203.182982,14.7021818 207.639077,11.7707377 C212.147596,8.92110599 217.047283,6.649089 222.192963,5.18730974 C227.32957,3.73045893 232.670834,2.87093667 238,3.0158332" id="Fill-43" fill="#101A2D"></path>
            <path d="M242,4 C246.276325,6.62761151 250.141313,9.93998841 253.6146,13.630894 C257.087887,17.3258158 260.044795,21.5518826 262.303707,26.1584862 C263.416965,28.4708245 264.273997,30.9126858 264.910145,33.4067581 C265.549238,35.8988222 265.963519,38.4661904 265.979226,41.0466113 C266.173605,46.2094613 264.989663,51.3321491 263.025264,56 C263.7586,53.565167 264.504699,51.1363584 264.807066,48.6171848 C265.052493,47.3771771 265.088816,46.1090558 265.218402,44.8569994 C265.218402,43.5949025 265.298902,42.3358177 265.17717,41.0807492 C265.132993,39.8226685 264.932724,38.5806526 264.788413,37.3336165 C264.549858,36.1016412 264.346644,34.8616335 263.992247,33.6567677 C263.342356,31.2359915 262.476488,28.8704383 261.365193,26.6263757 C259.234885,22.0870438 256.327062,17.9483298 253.027538,14.1861363 C251.382194,12.2965051 249.626898,10.5022591 247.77834,8.81042672 C245.947452,7.09750917 244.022321,5.48700521 242,4" id="Fill-44" fill="#101A2D"></path>
            <path d="M239,5 C237.130431,6.20415118 235.286704,7.4375 233.513546,8.77455081 C231.714545,10.0683086 229.961265,11.4275093 228.250724,12.836044 C224.829642,15.6510998 221.538763,18.6252323 218.509286,21.8540892 C215.408247,25.0195167 212.690862,28.535316 210.177231,32.1840149 L208.394133,34.9950434 C207.785852,35.9273544 207.342563,36.9502788 206.802862,37.9228625 C205.64693,39.8378253 204.956154,41.9682466 204,44 C205.296075,39.7109665 207.110979,35.5538259 209.494406,31.7339684 C211.901687,27.9392813 214.669762,24.3741481 217.745953,21.1120663 C220.877804,17.907373 224.195519,14.8869269 227.752769,12.1886617 C231.314988,9.5014715 235.03723,7.01866481 239,5" id="Fill-45" fill="#101A2D"></path>
            <path d="M241,7 C243.651572,10.2576702 245.691932,14.0012472 247.294006,17.9034672 C248.907013,21.8086805 249.988314,25.9393864 250.560767,30.1349464 C251.062658,34.3315041 251.21074,38.6058868 250.596545,42.7944625 C250.405728,44.9037166 249.874022,46.9541033 249.417848,49.0094787 C249.216098,50.0451484 248.809616,51.0259416 248.486617,52.0256922 C248.151692,53.0234472 247.805835,54.014218 247.451033,55 C248.499537,50.9341482 249.512263,46.8722874 249.787557,42.70666 L249.915763,41.1521576 C249.970425,40.6353205 250.019123,40.1184834 250.006203,39.5966575 L250.035024,36.4796707 C250.063846,35.44001 249.9098,34.4063357 249.855139,33.370666 L249.739853,31.8181591 C249.683204,31.3023198 249.586801,30.7914692 249.514251,30.2776253 C249.352254,29.2529309 249.269765,28.2132701 249.044163,27.199551 L248.391208,24.1524071 L247.533522,21.1551509 C247.227419,20.1623846 246.860691,19.1885757 246.538686,18.1978049 C246.202767,17.2130207 245.777402,16.2621601 245.399742,15.2903467 C244.984316,14.3364929 244.540068,13.3926166 244.089857,12.4517336 C243.180491,10.5729608 242.154845,8.7490646 241,7" id="Fill-46" fill="#101A2D"></path>
            <path d="M232,82.9168938 C233.275461,82.4889365 234.595538,82.2860737 235.926285,82.135316 C237.261882,82.0067898 238.608147,81.9331478 240,82.0846002 C238.726479,82.5132523 237.405432,82.7168099 236.073715,82.8661781 C234.738118,82.99262 233.391853,83.066262 232,82.9168938" id="Fill-47" fill="#101A2D"></path>
            <path d="M202,73 C203.433469,73.5023734 204.660653,74.2618671 205.83837,75.0806962 C206.996091,75.9262263 208.103293,76.8340585 209,78 C207.565479,77.4986155 206.338295,76.7401108 205.16163,75.9183149 C204.006014,75.070807 202.898812,74.1639636 202,73" id="Fill-48" fill="#101A2D"></path>
        </g>
        <path d="M1388.42364,85.6183533 L1493.20164,85.6183533 C1492.93464,84.7893533 1492.60964,83.9803533 1492.19764,83.2043533 C1490.48764,79.9703533 1486.97964,77.3903533 1483.36164,77.9383533 C1479.86564,78.4683533 1476.53064,81.7153533 1473.29764,80.2823533 C1470.35964,78.9803533 1470.08764,74.8213533 1467.77864,72.5843533 C1465.02564,69.9173533 1460.51664,70.8313533 1456.89264,72.0833533 C1453.26864,73.3353533 1449.01864,74.6853533 1445.83664,72.5473533 C1442.14064,70.0643533 1442.36564,64.6553533 1440.60064,60.5683533 C1438.41864,55.5173533 1432.60464,52.4353533 1427.14164,53.0863533 C1421.67764,53.7383533 1416.88364,57.8573533 1415.03464,63.0393533 C1413.52064,67.2853533 1412.87364,73.1313533 1408.45964,74.0443533 C1405.45264,74.6653533 1402.72164,72.3363533 1399.79864,71.3943533 C1395.60664,70.0433533 1390.60164,71.9203533 1388.33064,75.6963533 C1386.54164,78.6733533 1386.59864,82.5943533 1388.24864,85.6263533 C1388.30764,85.6233533 1388.36364,85.6183533 1388.42364,85.6183533" id="Fill-4" fill="#FFFFFE"></path>
    </g>
</svg>