<?xml version="1.0" standalone="no"?>
<!DOCTYPE svg PUBLIC "-//W3C//DTD SVG 20010904//EN"
 "http://www.w3.org/TR/2001/REC-SVG-20010904/DTD/svg10.dtd">
<svg version="1.0" xmlns="http://www.w3.org/2000/svg"
 width="700.000000pt" height="700.000000pt" viewBox="0 0 700.000000 700.000000"
 preserveAspectRatio="xMidYMid meet">
<metadata>
Created by potrace 1.11, written by Peter Selinger 2001-2013
</metadata>
<g transform="translate(0.000000,700.000000) scale(0.100000,-0.100000)"
fill="#000000" stroke="none">
<path d="M2304 6894 c67 -185 217 -597 229 -629 9 -22 30 -80 47 -130 17 -49
35 -99 40 -110 5 -11 39 -103 75 -205 72 -199 181 -498 275 -755 32 -88 86
-236 119 -330 34 -93 65 -179 70 -190 5 -11 35 -92 66 -180 32 -88 80 -221
107 -295 27 -74 61 -166 74 -205 14 -38 29 -79 34 -90 5 -11 14 -37 21 -57 7
-21 16 -38 20 -38 4 0 14 17 22 38 8 20 36 82 62 137 75 159 123 260 192 410
76 163 114 246 173 370 23 50 55 117 70 150 15 33 44 96 65 140 20 44 48 105
62 135 14 30 52 111 84 178 33 68 59 125 59 127 0 2 29 65 65 140 36 75 75
157 86 183 44 98 100 218 110 235 6 11 8 21 6 24 -3 2 -88 40 -188 84 -101 44
-202 89 -224 99 -22 10 -71 32 -110 48 -38 17 -110 48 -160 70 -49 21 -160 70
-245 107 -85 37 -173 75 -195 85 -22 10 -56 25 -75 33 -19 9 -154 68 -300 132
-256 113 -712 312 -737 322 -10 4 -10 -4 1 -33z"/>
<path d="M4611 5758 c-8 -18 -39 -85 -69 -148 -30 -63 -83 -177 -118 -252 -35
-75 -81 -174 -102 -220 -22 -46 -49 -104 -60 -129 -12 -25 -46 -99 -77 -164
-30 -64 -55 -118 -55 -120 0 -1 -31 -67 -69 -147 -67 -140 -95 -201 -151 -323
-15 -33 -44 -96 -65 -140 -104 -220 -233 -500 -231 -502 1 -1 139 47 307 108
167 61 369 135 449 164 436 157 825 299 828 301 6 4 -32 118 -108 329 -40 110
-94 261 -120 335 -103 287 -193 539 -222 620 -17 47 -48 132 -69 190 -22 58
-39 111 -39 118 0 23 -15 12 -29 -20z"/>
<path d="M2415 5093 c-433 -156 -1226 -439 -1245 -445 -20 -6 -16 -8 495 -246
237 -110 483 -225 548 -256 65 -31 120 -56 122 -56 1 0 63 -29 136 -64 74 -35
154 -73 179 -84 25 -11 86 -39 135 -62 50 -23 117 -55 150 -70 33 -15 94 -43
135 -63 207 -97 270 -126 270 -123 0 2 -7 23 -16 47 -9 24 -17 49 -18 54 -2 6
-6 17 -9 25 -4 8 -32 85 -62 170 -31 85 -64 178 -75 205 -19 51 -84 230 -205
565 -37 102 -91 250 -120 330 -29 80 -56 155 -60 168 -3 12 -14 22 -23 21 -9
0 -161 -52 -337 -116z"/>
<path d="M6750 4599 c-91 -33 -219 -79 -285 -103 -66 -24 -196 -72 -290 -106
-93 -34 -192 -70 -220 -80 -27 -9 -95 -34 -150 -54 -55 -21 -154 -57 -220 -81
-171 -61 -356 -128 -455 -165 -47 -17 -166 -61 -265 -97 -99 -35 -220 -80
-270 -98 -49 -18 -155 -56 -235 -84 -80 -29 -154 -56 -165 -61 -27 -11 -94
-36 -330 -121 -110 -39 -201 -73 -202 -74 -4 -2 54 -30 377 -180 162 -76 346
-162 408 -191 62 -30 115 -54 116 -54 2 0 57 -25 122 -56 66 -31 175 -82 244
-114 69 -32 233 -108 365 -170 319 -149 364 -170 470 -220 50 -23 108 -50 131
-60 l40 -18 64 147 c35 80 76 173 91 206 29 66 118 269 254 580 48 110 98 223
110 250 13 28 78 176 145 330 67 154 131 298 141 320 56 125 179 409 176 411
-1 1 -76 -24 -167 -57z"/>
<path d="M830 4153 c-95 -219 -186 -425 -201 -458 -22 -50 -235 -535 -464
-1060 -29 -66 -72 -163 -95 -215 -23 -52 -44 -100 -47 -107 -3 -9 6 -8 34 2
21 8 130 48 243 89 113 41 356 129 540 196 184 67 385 140 445 162 61 22 126
46 145 53 34 14 543 199 650 237 30 10 102 37 160 58 58 21 182 66 275 100 94
34 217 79 275 100 356 130 448 164 470 170 26 8 12 15 -265 145 -38 18 -176
82 -305 142 -129 61 -260 122 -290 136 -30 13 -158 73 -285 132 -328 153 -373
174 -435 202 -30 14 -111 52 -179 84 -67 33 -124 59 -126 59 -2 0 -56 25 -121
56 -144 68 -244 114 -247 114 -1 0 -81 -179 -177 -397z"/>
<path d="M3135 3284 c-99 -36 -209 -76 -245 -88 -96 -34 -703 -254 -790 -286
-41 -16 -138 -51 -215 -78 -77 -28 -141 -55 -143 -60 -2 -8 162 -481 228 -657
10 -27 62 -171 115 -320 53 -148 105 -292 115 -320 10 -27 30 -81 43 -120 14
-38 35 -96 47 -128 l22 -59 55 119 c95 206 174 374 233 498 42 88 97 207 140
300 15 33 46 98 68 145 76 160 142 302 142 306 0 2 22 48 49 104 27 55 47 100
45 100 -3 0 4 13 15 29 12 16 21 34 21 39 0 5 20 51 45 101 25 50 45 93 45 95
0 4 74 161 134 285 14 30 26 56 26 58 0 7 -21 0 -195 -63z"/>
<path d="M3610 3313 c5 -16 22 -64 38 -108 16 -44 95 -262 176 -485 81 -223
151 -414 156 -425 5 -11 50 -135 100 -275 51 -140 96 -259 100 -263 6 -7 177
52 785 270 345 124 421 151 610 218 105 37 193 71 198 74 4 4 -25 22 -65 41
-40 18 -129 60 -197 92 -68 32 -125 58 -126 58 -1 0 -63 29 -136 64 -74 35
-159 75 -189 88 -30 14 -89 41 -130 61 -41 19 -145 67 -230 107 -85 40 -189
88 -230 107 -41 20 -106 50 -145 68 -38 18 -104 48 -145 68 -89 41 -199 93
-295 137 -38 18 -117 55 -174 81 -57 27 -105 49 -106 49 -2 0 0 -12 5 -27z"/>
<path d="M3420 3205 c-23 -49 -55 -117 -70 -150 -15 -33 -46 -98 -68 -145 -21
-47 -84 -182 -140 -300 -55 -118 -119 -255 -142 -305 -52 -111 -90 -192 -170
-365 -34 -74 -79 -171 -100 -215 -112 -241 -186 -397 -264 -565 -35 -74 -60
-138 -57 -143 7 -7 211 -98 876 -388 176 -77 338 -149 360 -159 48 -22 817
-359 929 -407 64 -27 77 -30 71 -16 -4 10 -18 50 -32 88 -13 39 -28 79 -33 90
-5 11 -30 79 -56 150 -25 72 -63 177 -84 235 -99 276 -231 637 -239 655 -5 11
-41 108 -79 215 -106 296 -591 1630 -607 1670 -7 19 -23 60 -34 90 l-19 55
-42 -90z"/>
</g>
</svg>
